プレゼミ2024 第5章 差の差の分析 第2回
…
Residual standard error: 0.01525 on 93 degrees of freedom
Multiple R-squared:  0.9836,    Adjusted R-squared:  0.9754 
F-statistic:   119 on 47 and 93 DF,  p-value: < 2.2e-16

# 回帰モデルの作成
library(broom)
df_aug <- augment(model, df)
df_aug

# A tibble: 141 × 12
   pref_id pref    year emprate caprate dist_f_tokyo .fitted   .resid  .hat
     <dbl> <chr>  <dbl>   <dbl>   <dbl>        <dbl>   <dbl>    <dbl> <dbl>
 1       1 北海道  2000   0.286   0.213          831   0.308 -0.0220  0.337
 2       2 青森県  2000   0.463   0.407          577   0.459  0.00445 0.354
 3       3 岩手県  2000   0.486   0.297          464   0.469  0.0170  0.353
 4       4 宮城県  2000   0.374   0.161          305   0.366  0.00866 0.342
 5       5 秋田県  2000   0.520   0.345          449   0.499  0.0209  0.360
 6       6 山形県  2000   0.610   0.271          289   0.580  0.0303  0.346
 7       7 福島県  2000   0.469   0.185          239   0.452  0.0163  0.341
 8       8 茨城県  2000   0.343   0.202           99   0.345 -0.00212 0.342
 9       9 栃木県  2000   0.379   0.220           99   0.385 -0.00623 0.339
10      10 群馬県  2000   0.357   0.298           96   0.371 -0.0142  0.346
# ℹ 131 more rows
# ℹ 3 more variables: .sigma <dbl>, .cooksd <dbl>, .std.resid <dbl>
…
